size,time,cores
32,41,4
32,19,4
32,18,4
32,23,4
32,18,4
32,20,4
32,17,4
32,20,4
32,17,4
32,25,4
32,17,4
32,20,4
32,18,4
32,20,4
32,18,4
32,20,4
32,14,4
32,16,4
32,14,4
32,17,4
32,14,4
32,16,4
32,14,4
32,16,4
32,14,4
32,16,4
32,14,4
32,16,4
32,14,4
32,16,4
32,14,4
32,16,4
32,14,4
32,20,4
32,16,4
32,18,4
32,16,4
32,20,4
32,18,4
32,20,4
64,44,4
64,37,4
64,33,4
64,41,4
64,32,4
64,36,4
64,32,4
64,36,4
64,32,4
64,36,4
64,32,4
64,36,4
64,32,4
64,36,4
64,32,4
64,36,4
64,32,4
64,36,4
64,32,4
64,36,4
64,32,4
64,36,4
64,32,4
64,36,4
64,32,4
64,36,4
64,32,4
64,37,4
64,32,4
64,36,4
64,32,4
64,36,4
64,32,4
64,36,4
64,32,4
64,36,4
64,32,4
64,36,4
64,32,4
64,39,4
128,75,4
128,80,4
128,72,4
128,80,4
128,72,4
128,80,4
128,72,4
128,80,4
128,72,4
128,80,4
128,72,4
128,80,4
128,72,4
128,80,4
128,72,4
128,80,4
128,72,4
128,80,4
128,72,4
128,80,4
128,72,4
128,80,4
128,72,4
128,86,4
128,78,4
128,88,4
128,83,4
128,93,4
128,84,4
128,96,4
128,87,4
128,90,4
128,87,4
128,88,4
128,90,4
128,91,4
128,87,4
128,97,4
128,89,4
128,97,4
256,169,4
256,175,4
256,160,4
256,198,4
256,160,4
256,175,4
256,159,4
256,175,4
256,159,4
256,174,4
256,159,4
256,174,4
256,159,4
256,174,4
256,159,4
256,182,4
256,159,4
256,174,4
256,159,4
256,175,4
256,159,4
256,175,4
256,159,4
256,175,4
256,159,4
256,175,4
256,159,4
256,175,4
256,159,4
256,175,4
256,169,4
256,175,4
256,159,4
256,175,4
256,170,4
256,175,4
256,159,4
256,174,4
256,159,4
256,200,4
512,358,4
512,378,4
512,348,4
512,378,4
512,349,4
512,378,4
512,353,4
512,379,4
512,348,4
512,380,4
512,349,4
512,379,4
512,348,4
512,378,4
512,349,4
512,379,4
512,355,4
512,379,4
512,349,4
512,379,4
512,351,4
512,379,4
512,350,4
512,378,4
512,348,4
512,381,4
512,349,4
512,378,4
512,348,4
512,378,4
512,348,4
512,378,4
512,348,4
512,380,4
512,348,4
512,387,4
512,350,4
512,380,4
512,355,4
512,382,4
1024,784,4
1024,816,4
1024,754,4
1024,923,4
1024,915,4
1024,1047,4
1024,839,4
1024,843,4
1024,756,4
1024,843,4
1024,868,4
1024,817,4
1024,756,4
1024,816,4
1024,771,4
1024,821,4
1024,879,4
1024,696,4
1024,616,4
1024,687,4
1024,621,4
1024,656,4
1024,610,4
1024,647,4
1024,601,4
1024,648,4
1024,608,4
1024,659,4
1024,600,4
1024,647,4
1024,600,4
1024,647,4
1024,653,4
1024,658,4
1024,611,4
1024,656,4
1024,609,4
1024,656,4
1024,616,4
1024,655,4
2048,1659,4
2048,1878,4
2048,1640,4
2048,1755,4
2048,1643,4
2048,1756,4
2048,1640,4
2048,1754,4
2048,1531,4
2048,1432,4
2048,1307,4
2048,1429,4
2048,1303,4
2048,1396,4
2048,1307,4
2048,2250,4
2048,1399,4
2048,1393,4
2048,1304,4
2048,1392,4
2048,1299,4
2048,1513,4
2048,1839,4
2048,1416,4
2048,1310,4
2048,1400,4
2048,1350,4
2048,1424,4
2048,1308,4
2048,1387,4
2048,1293,4
2048,1407,4
2048,1290,4
2048,1391,4
2048,1311,4
2048,1387,4
2048,1297,4
2048,1387,4
2048,1291,4
2048,1393,4
4096,3546,4
4096,3762,4
4096,3506,4
4096,3764,4
4096,2905,4
4096,3044,4
4096,2781,4
4096,3452,4
4096,2824,4
4096,2969,4
4096,2777,4
4096,3025,4
4096,2784,4
4096,3008,4
4096,2808,4
4096,2988,4
4096,2804,4
4096,2967,4
4096,2774,4
4096,2965,4
4096,2794,4
4096,4438,4
4096,3751,4
4096,4310,4
4096,4707,4
4096,6687,4
4096,4378,4
4096,7148,4
4096,4755,4
4096,6659,4
4096,4625,4
4096,6826,4
4096,5454,4
4096,6617,4
4096,4478,4
4096,6882,4
4096,4520,4
4096,6903,4
4096,4630,4
4096,6590,4
8192,22144,4
8192,14134,4
8192,10266,4
8192,15278,4
8192,10970,4
8192,10049,4
8192,9309,4
8192,10656,4
8192,10005,4
8192,9957,4
8192,6240,4
8192,7704,4
8192,6642,4
8192,7546,4
8192,7367,4
8192,6479,4
8192,8305,4
8192,6305,4
8192,5967,4
8192,6295,4
8192,5917,4
8192,6280,4
8192,5916,4
8192,8431,4
8192,11759,4
8192,6645,4
8192,5941,4
8192,6282,4
8192,5916,4
8192,6275,4
8192,7585,4
8192,6379,4
8192,5910,4
8192,7481,4
8192,6030,4
8192,7555,4
8192,6369,4
8192,6391,4
8192,6316,4
8192,7918,4
16384,16410,4
16384,13506,4
16384,13031,4
16384,13339,4
16384,12587,4
16384,13852,4
16384,13824,4
16384,14177,4
16384,12613,4
16384,13407,4
16384,13099,4
16384,13967,4
16384,13032,4
16384,14028,4
16384,13200,4
16384,13922,4
16384,13030,4
16384,13914,4
16384,12588,4
16384,13343,4
16384,12598,4
16384,13951,4
16384,12592,4
16384,13352,4
16384,12666,4
16384,13393,4
16384,13348,4
16384,14619,4
16384,15848,4
16384,16513,4
16384,17058,4
16384,17014,4
16384,13332,4
16384,13413,4
16384,12621,4
16384,14952,4
16384,12631,4
16384,13334,4
16384,12615,4
16384,13393,4
32768,31693,4
32768,34916,4
32768,31875,4
32768,30123,4
32768,28033,4
32768,28138,4
32768,26629,4
32768,32247,4
32768,28111,4
32768,32438,4
32768,28022,4
32768,29583,4
32768,26629,4
32768,28109,4
32768,28599,4
32768,30544,4
32768,29291,4
32768,31251,4
32768,27603,4
32768,28154,4
32768,26628,4
32768,30247,4
32768,28436,4
32768,29540,4
32768,30642,4
32768,29858,4
32768,26658,4
32768,28119,4
32768,28489,4
32768,31599,4
32768,28197,4
32768,33723,4
32768,26781,4
32768,28199,4
32768,26699,4
32768,29636,4
32768,27359,4
32768,29613,4
32768,28627,4
32768,28514,4
65536,62533,4
65536,65179,4
65536,60960,4
65536,59295,4
65536,57741,4
65536,61800,4
65536,58326,4
65536,60977,4
65536,57727,4
65536,61089,4
65536,57894,4
65536,60222,4
65536,57435,4
65536,61173,4
65536,58933,4
65536,59480,4
65536,56937,4
65536,62254,4
65536,57557,4
65536,61564,4
65536,57945,4
65536,66936,4
65536,60220,4
65536,59521,4
65536,58438,4
65536,61223,4
65536,60620,4
65536,60197,4
65536,56272,4
65536,61532,4
65536,58409,4
65536,60924,4
65536,59212,4
65536,61719,4
65536,59160,4
65536,59450,4
65536,56985,4
65536,60895,4
65536,58323,4
65536,61927,4
131072,128264,4
131072,129524,4
131072,121840,4
131072,128890,4
131072,122574,4
131072,128513,4
131072,125697,4
131072,127201,4
131072,123811,4
131072,126693,4
131072,124495,4
131072,128265,4
131072,123483,4
131072,126969,4
131072,122252,4
131072,126774,4
131072,120048,4
131072,125207,4
131072,122072,4
131072,125829,4
131072,119826,4
131072,126422,4
131072,120566,4
131072,130160,4
131072,122681,4
131072,127025,4
131072,121389,4
131072,127084,4
131072,120426,4
131072,126244,4
131072,119815,4
131072,127356,4
131072,121823,4
131072,125507,4
131072,120681,4
131072,127068,4
131072,120483,4
131072,129514,4
131072,122480,4
131072,127456,4
262144,258827,4
262144,267751,4
262144,263585,4
262144,266671,4
262144,258116,4
262144,293046,4
262144,255622,4
262144,267411,4
262144,261187,4
262144,275615,4
262144,258779,4
262144,265058,4
262144,260331,4
262144,284299,4
262144,256368,4
262144,278010,4
262144,261693,4
262144,284647,4
262144,264777,4
262144,275734,4
262144,262107,4
262144,276389,4
262144,257104,4
262144,272799,4
262144,260755,4
262144,282504,4
262144,262896,4
262144,282864,4
262144,261799,4
262144,328400,4
262144,269684,4
262144,291673,4
262144,278015,4
262144,399719,4
262144,278162,4
262144,280859,4
262144,269453,4
262144,306422,4
262144,281723,4
262144,267281,4
524288,547229,4
524288,571245,4
524288,556799,4
524288,563208,4
524288,553040,4
524288,565450,4
524288,549887,4
524288,556968,4
524288,536524,4
524288,569329,4
524288,528176,4
524288,568940,4
524288,532659,4
524288,568185,4
524288,534605,4
524288,563753,4
524288,534820,4
524288,564600,4
524288,533632,4
524288,558415,4
524288,543015,4
524288,554051,4
524288,549013,4
524288,561140,4
524288,555037,4
524288,558712,4
524288,537928,4
524288,560317,4
524288,541346,4
524288,562781,4
524288,534677,4
524288,565147,4
524288,534374,4
524288,569177,4
524288,532974,4
524288,568789,4
524288,529886,4
524288,561921,4
524288,538825,4
524288,558265,4
1048576,1128527,4
1048576,1167665,4
1048576,1117873,4
1048576,1157841,4
1048576,1110843,4
1048576,1165263,4
1048576,1123726,4
1048576,1159385,4
1048576,1114689,4
1048576,1160749,4
1048576,1128796,4
1048576,1165321,4
1048576,1121587,4
1048576,1172396,4
1048576,1132045,4
1048576,1181680,4
1048576,1128480,4
1048576,1176145,4
1048576,1122225,4
1048576,1167637,4
1048576,1145159,4
1048576,1194350,4
1048576,1122537,4
1048576,1168983,4
1048576,1119367,4
1048576,1173936,4
1048576,1118027,4
1048576,1163393,4
1048576,1120288,4
1048576,1169658,4
1048576,1133915,4
1048576,1192643,4
1048576,1117146,4
1048576,1183630,4
1048576,1113199,4
1048576,1177593,4
1048576,1142453,4
1048576,1191020,4
1048576,1142946,4
1048576,1213403,4
2097152,2371508,4
2097152,2479499,4
2097152,2405550,4
2097152,2481219,4
2097152,2362395,4
2097152,2467508,4
2097152,2442942,4
2097152,2479930,4
2097152,2400808,4
2097152,2512619,4
2097152,2410265,4
2097152,2508587,4
2097152,2409214,4
2097152,2416806,4
2097152,2377737,4
2097152,2514382,4
2097152,2362811,4
2097152,2469604,4
2097152,2369524,4
2097152,2464791,4
2097152,2349317,4
2097152,2539318,4
2097152,2355762,4
2097152,2458045,4
2097152,2391827,4
2097152,2468428,4
2097152,2367849,4
2097152,2468483,4
2097152,2403102,4
2097152,2464930,4
2097152,2354820,4
2097152,2440997,4
2097152,2341256,4
2097152,2489835,4
2097152,2343169,4
2097152,2453179,4
2097152,2367137,4
2097152,2430900,4
2097152,2380154,4
2097152,2503110,4
4194304,4981421,4
4194304,5224064,4
4194304,4961614,4
4194304,5143695,4
4194304,4942568,4
4194304,5117857,4
4194304,4915287,4
4194304,5086699,4
4194304,4917586,4
4194304,5078554,4
4194304,4922818,4
4194304,5088131,4
4194304,4896473,4
4194304,5090810,4
4194304,4925142,4
4194304,5118108,4
4194304,4913202,4
4194304,5090957,4
4194304,4975050,4
4194304,5112375,4
4194304,4926357,4
4194304,5096817,4
4194304,4921866,4
4194304,5121255,4
4194304,4941802,4
4194304,5088478,4
4194304,4919675,4
4194304,5170464,4
4194304,4981435,4
4194304,5224150,4
4194304,5004123,4
4194304,5138608,4
4194304,5023389,4
4194304,5153204,4
4194304,4916240,4
4194304,5089167,4
4194304,4963201,4
4194304,5161820,4
4194304,4955946,4
4194304,5167240,4
8388608,10434139,4
8388608,10974085,4
8388608,10466327,4
8388608,10687082,4
8388608,10284167,4
8388608,10604461,4
8388608,10277434,4
8388608,10682421,4
8388608,10385650,4
8388608,10687552,4
8388608,10392005,4
8388608,10765955,4
8388608,10735452,4
8388608,11616783,4
8388608,10544133,4
8388608,10662309,4
8388608,10300153,4
8388608,10638061,4
8388608,10314057,4
8388608,10645699,4
8388608,10302723,4
8388608,10662339,4
8388608,10303164,4
8388608,10621637,4
8388608,10286844,4
8388608,10676462,4
8388608,10342104,4
8388608,10652926,4
8388608,10312284,4
8388608,10637255,4
8388608,10315404,4
8388608,10646422,4
8388608,10332069,4
8388608,10712664,4
8388608,10313119,4
8388608,10715096,4
8388608,10304602,4
8388608,10779041,4
8388608,10327568,4
8388608,11017017,4
16777216,21549172,4
16777216,22243518,4
16777216,21726683,4
16777216,22575489,4
16777216,21666144,4
16777216,22301331,4
16777216,21663880,4
16777216,22537996,4
16777216,21604533,4
16777216,22539947,4
16777216,21742344,4
16777216,22576700,4
16777216,21585234,4
16777216,22271215,4
16777216,21612473,4
16777216,22225598,4
16777216,21554496,4
16777216,22408239,4
16777216,21758422,4
16777216,22222039,4
16777216,21452860,4
16777216,22203650,4
16777216,21523924,4
16777216,22284419,4
16777216,21579572,4
16777216,22618720,4
16777216,22523661,4
16777216,23653920,4
16777216,21553361,4
16777216,22284492,4
16777216,21940446,4
16777216,22298295,4
16777216,22072172,4
16777216,22316875,4
16777216,21550466,4
16777216,23169896,4
16777216,21961251,4
16777216,23949102,4
16777216,23766526,4
16777216,22402807,4
33554432,51653330,4
33554432,47842110,4
33554432,46381092,4
33554432,46531057,4
33554432,45091418,4
33554432,52582820,4
33554432,50757650,4
33554432,50262565,4
33554432,49657411,4
33554432,49083856,4
33554432,45489970,4
33554432,47243572,4
33554432,45123145,4
33554432,46242528,4
33554432,44932626,4
33554432,46550570,4
33554432,44835146,4
33554432,51070962,4
33554432,46590723,4
33554432,49119386,4
33554432,46547525,4
33554432,47511345,4
33554432,45789653,4
33554432,47429521,4
33554432,46408822,4
33554432,47808274,4
33554432,46184868,4
33554432,47291388,4
33554432,45862038,4
33554432,47393113,4
33554432,46616070,4
33554432,47308133,4
33554432,46093152,4
33554432,47522677,4
33554432,46359666,4
33554432,50468851,4
33554432,47374809,4
33554432,47645069,4
33554432,45283111,4
33554432,46786638,4
