FFT_0,IFFT_0,FFT_1,IFFT_1,FFT_2,IFFT_2,FFT_3,IFFT_3,FFT_4,IFFT_4,FFT_5,IFFT_5,FFT_6,IFFT_6,FFT_7,IFFT_7,FFT_8,IFFT_8,FFT_9,IFFT_9,FFT_10,IFFT_10,FFT_11,IFFT_11,FFT_12,IFFT_12,FFT_13,IFFT_13,FFT_14,IFFT_14,FFT_15,IFFT_15,FFT_16,IFFT_16,FFT_17,IFFT_17,FFT_18,IFFT_18,FFT_19,IFFT_19
41,19,18,23,18,20,17,20,17,25,17,20,18,20,18,20,14,16,14,17,14,16,14,16,14,16,14,16,14,16,14,16,14,20,16,18,16,20,18,20
44,37,33,41,32,36,32,36,32,36,32,36,32,36,32,36,32,36,32,36,32,36,32,36,32,36,32,37,32,36,32,36,32,36,32,36,32,36,32,39
75,80,72,80,72,80,72,80,72,80,72,80,72,80,72,80,72,80,72,80,72,80,72,86,78,88,83,93,84,96,87,90,87,88,90,91,87,97,89,97
169,175,160,198,160,175,159,175,159,174,159,174,159,174,159,182,159,174,159,175,159,175,159,175,159,175,159,175,159,175,169,175,159,175,170,175,159,174,159,200
358,378,348,378,349,378,353,379,348,380,349,379,348,378,349,379,355,379,349,379,351,379,350,378,348,381,349,378,348,378,348,378,348,380,348,387,350,380,355,382
784,816,754,923,915,1047,839,843,756,843,868,817,756,816,771,821,879,696,616,687,621,656,610,647,601,648,608,659,600,647,600,647,653,658,611,656,609,656,616,655
1659,1878,1640,1755,1643,1756,1640,1754,1531,1432,1307,1429,1303,1396,1307,2250,1399,1393,1304,1392,1299,1513,1839,1416,1310,1400,1350,1424,1308,1387,1293,1407,1290,1391,1311,1387,1297,1387,1291,1393
3546,3762,3506,3764,2905,3044,2781,3452,2824,2969,2777,3025,2784,3008,2808,2988,2804,2967,2774,2965,2794,4438,3751,4310,4707,6687,4378,7148,4755,6659,4625,6826,5454,6617,4478,6882,4520,6903,4630,6590
22144,14134,10266,15278,10970,10049,9309,10656,10005,9957,6240,7704,6642,7546,7367,6479,8305,6305,5967,6295,5917,6280,5916,8431,11759,6645,5941,6282,5916,6275,7585,6379,5910,7481,6030,7555,6369,6391,6316,7918
16410,13506,13031,13339,12587,13852,13824,14177,12613,13407,13099,13967,13032,14028,13200,13922,13030,13914,12588,13343,12598,13951,12592,13352,12666,13393,13348,14619,15848,16513,17058,17014,13332,13413,12621,14952,12631,13334,12615,13393
31693,34916,31875,30123,28033,28138,26629,32247,28111,32438,28022,29583,26629,28109,28599,30544,29291,31251,27603,28154,26628,30247,28436,29540,30642,29858,26658,28119,28489,31599,28197,33723,26781,28199,26699,29636,27359,29613,28627,28514
62533,65179,60960,59295,57741,61800,58326,60977,57727,61089,57894,60222,57435,61173,58933,59480,56937,62254,57557,61564,57945,66936,60220,59521,58438,61223,60620,60197,56272,61532,58409,60924,59212,61719,59160,59450,56985,60895,58323,61927
128264,129524,121840,128890,122574,128513,125697,127201,123811,126693,124495,128265,123483,126969,122252,126774,120048,125207,122072,125829,119826,126422,120566,130160,122681,127025,121389,127084,120426,126244,119815,127356,121823,125507,120681,127068,120483,129514,122480,127456
258827,267751,263585,266671,258116,293046,255622,267411,261187,275615,258779,265058,260331,284299,256368,278010,261693,284647,264777,275734,262107,276389,257104,272799,260755,282504,262896,282864,261799,328400,269684,291673,278015,399719,278162,280859,269453,306422,281723,267281
547229,571245,556799,563208,553040,565450,549887,556968,536524,569329,528176,568940,532659,568185,534605,563753,534820,564600,533632,558415,543015,554051,549013,561140,555037,558712,537928,560317,541346,562781,534677,565147,534374,569177,532974,568789,529886,561921,538825,558265
1128527,1167665,1117873,1157841,1110843,1165263,1123726,1159385,1114689,1160749,1128796,1165321,1121587,1172396,1132045,1181680,1128480,1176145,1122225,1167637,1145159,1194350,1122537,1168983,1119367,1173936,1118027,1163393,1120288,1169658,1133915,1192643,1117146,1183630,1113199,1177593,1142453,1191020,1142946,1213403
2371508,2479499,2405550,2481219,2362395,2467508,2442942,2479930,2400808,2512619,2410265,2508587,2409214,2416806,2377737,2514382,2362811,2469604,2369524,2464791,2349317,2539318,2355762,2458045,2391827,2468428,2367849,2468483,2403102,2464930,2354820,2440997,2341256,2489835,2343169,2453179,2367137,2430900,2380154,2503110
4981421,5224064,4961614,5143695,4942568,5117857,4915287,5086699,4917586,5078554,4922818,5088131,4896473,5090810,4925142,5118108,4913202,5090957,4975050,5112375,4926357,5096817,4921866,5121255,4941802,5088478,4919675,5170464,4981435,5224150,5004123,5138608,5023389,5153204,4916240,5089167,4963201,5161820,4955946,5167240
10434139,10974085,10466327,10687082,10284167,10604461,10277434,10682421,10385650,10687552,10392005,10765955,10735452,11616783,10544133,10662309,10300153,10638061,10314057,10645699,10302723,10662339,10303164,10621637,10286844,10676462,10342104,10652926,10312284,10637255,10315404,10646422,10332069,10712664,10313119,10715096,10304602,10779041,10327568,11017017
21549172,22243518,21726683,22575489,21666144,22301331,21663880,22537996,21604533,22539947,21742344,22576700,21585234,22271215,21612473,22225598,21554496,22408239,21758422,22222039,21452860,22203650,21523924,22284419,21579572,22618720,22523661,23653920,21553361,22284492,21940446,22298295,22072172,22316875,21550466,23169896,21961251,23949102,23766526,22402807
51653330,47842110,46381092,46531057,45091418,52582820,50757650,50262565,49657411,49083856,45489970,47243572,45123145,46242528,44932626,46550570,44835146,51070962,46590723,49119386,46547525,47511345,45789653,47429521,46408822,47808274,46184868,47291388,45862038,47393113,46616070,47308133,46093152,47522677,46359666,50468851,47374809,47645069,45283111,46786638
