FFT_0,IFFT_0,FFT_1,IFFT_1,FFT_2,IFFT_2,FFT_3,IFFT_3,FFT_4,IFFT_4,FFT_5,IFFT_5,FFT_6,IFFT_6,FFT_7,IFFT_7,FFT_8,IFFT_8,FFT_9,IFFT_9,FFT_10,IFFT_10,FFT_11,IFFT_11,FFT_12,IFFT_12,FFT_13,IFFT_13,FFT_14,IFFT_14,FFT_15,IFFT_15,FFT_16,IFFT_16,FFT_17,IFFT_17,FFT_18,IFFT_18,FFT_19,IFFT_19,FFT_20,IFFT_20,FFT_21,IFFT_21,FFT_22,IFFT_22,FFT_23,IFFT_23,FFT_24,IFFT_24,FFT_25,IFFT_25,FFT_26,IFFT_26,FFT_27,IFFT_27,FFT_28,IFFT_28,FFT_29,IFFT_29,FFT_30,IFFT_30,FFT_31,IFFT_31,FFT_32,IFFT_32,FFT_33,IFFT_33,FFT_34,IFFT_34,FFT_35,IFFT_35,FFT_36,IFFT_36,FFT_37,IFFT_37,FFT_38,IFFT_38,FFT_39,IFFT_39,FFT_40,IFFT_40,FFT_41,IFFT_41,FFT_42,IFFT_42,FFT_43,IFFT_43,FFT_44,IFFT_44,FFT_45,IFFT_45,FFT_46,IFFT_46,FFT_47,IFFT_47,FFT_48,IFFT_48,FFT_49,IFFT_49
26,6,5,6,5,6,5,6,5,6,5,6,5,6,5,6,5,6,5,6,5,6,5,6,5,6,5,6,5,6,5,6,5,6,8,79,5,6,5,6,5,6,5,6,5,6,5,6,5,6,5,6,12,6,5,6,5,6,5,6,5,6,5,6,5,6,5,6,5,6,5,6,5,6,5,6,5,6,5,6,5,6,5,6,5,6,5,6,5,6,6,9,8,9,10,10,6,6,5,6
12,13,12,13,12,13,12,13,12,13,12,13,12,13,12,13,12,13,12,13,12,13,12,13,12,13,12,13,12,13,12,13,12,13,12,13,12,13,12,13,12,13,12,13,12,13,12,13,12,13,12,13,12,13,12,13,12,13,12,13,12,13,12,13,12,13,12,13,12,13,12,13,13,14,13,15,14,17,15,16,15,16,14,17,14,16,15,17,15,16,14,13,12,13,12,13,12,13,12,13
29,29,26,29,26,29,26,29,26,29,26,29,26,29,26,29,26,29,26,29,26,29,26,29,26,29,26,29,26,29,26,29,26,36,27,29,26,29,26,29,26,29,26,29,26,29,26,29,26,29,26,29,26,29,26,29,26,29,26,29,26,29,27,29,26,29,26,29,27,29,26,29,27,29,26,29,26,29,26,29,26,29,26,29,26,29,26,29,26,29,34,29,26,29,26,29,26,32,30,29
60,64,59,64,59,64,59,64,59,64,59,64,59,64,59,64,59,64,59,64,59,64,59,64,59,64,59,156,59,64,59,70,59,64,59,64,59,64,59,64,59,64,59,64,59,64,59,64,59,64,59,64,59,64,59,64,59,64,59,64,59,64,59,64,59,64,59,67,68,64,59,69,59,64,59,64,59,64,59,64,59,64,59,64,59,64,59,64,59,64,59,64,59,64,59,64,59,64,59,64
133,139,130,140,130,147,130,140,130,140,130,139,130,139,130,140,130,140,130,140,130,140,130,139,130,140,130,140,139,140,130,140,130,140,130,140,130,140,130,139,130,140,130,139,130,139,8035,142,130,140,165,173,146,140,130,140,130,140,130,188,146,140,130,141,134,140,130,139,132,142,131,143,138,177,131,139,130,139,140,203,130,140,130,140,143,167,130,139,132,140,130,110,109,112,102,110,107,128,110,128
298,310,290,309,294,309,290,310,290,316,290,310,293,310,289,310,289,310,291,310,290,310,295,309,289,310,290,310,421,499,415,308,288,313,288,308,288,307,288,308,288,308,287,308,287,311,288,307,290,310,252,241,219,235,219,235,218,235,218,232,217,245,220,234,221,247,220,243,221,234,218,233,218,235,218,235,215,234,229,235,219,235,218,233,216,233,215,231,217,234,218,234,220,234,218,246,212,227,211,225
632,670,632,670,639,671,634,756,651,686,650,683,638,674,643,795,651,936,682,790,578,499,462,495,456,488,456,559,467,488,456,488,456,538,560,715,475,495,456,505,456,494,721,651,655,654,519,497,462,529,486,497,556,673,604,487,454,490,709,487,454,486,454,486,454,495,462,486,454,510,454,486,454,486,565,501,454,486,454,486,454,486,454,509,465,496,464,495,464,496,463,501,463,496,640,496,462,495,463,574
1383,1497,1409,1450,1376,1468,1460,1615,1383,1461,1479,1209,988,1060,988,1051,988,1055,988,1051,988,1116,1009,1224,988,1122,988,1093,988,1056,986,1049,987,1057,988,1051,987,1111,1054,1067,1022,1154,1037,1054,998,1053,990,1053,1057,1056,1009,1055,996,1062,1135,1317,1017,1687,1643,1767,1629,1699,1621,1734,1738,1732,1074,1148,1193,1446,1023,1062,1007,1069,996,1080,1033,1937,1501,1071,1017,1111,1008,1041,1059,1068,997,1060,1164,1330,1015,1545,1171,1202,1046,1074,1001,1067,1397,1179
2974,3512,3241,3130,2984,2299,2141,2816,2297,2383,2143,2259,2116,2254,2320,2731,2246,2259,2146,2924,2347,2605,2496,2319,2215,2257,2132,2416,2202,2256,2130,2263,2126,2260,2125,2261,2124,2263,2126,2260,2125,2272,2132,2255,2154,2329,2138,2256,2129,2219,2129,2258,2125,2259,2125,2261,2124,2319,2143,2264,3113,3802,3651,2539,2227,3234,3576,3733,3470,3740,3430,3924,3731,3959,3618,3641,3231,2417,2444,2606,2787,2289,2235,2675,2260,2286,2261,2845,2713,2471,2136,2439,2290,2320,2415,2473,2370,2496,3066,4470
6679,9076,7007,10229,7502,5109,4670,5194,4802,4969,4663,5120,4992,5110,5909,6248,5723,5339,6022,5359,5188,5306,5852,4976,5344,5419,5088,4929,5619,5203,7237,7900,7345,7381,8047,7813,5010,5098,6796,4981,5232,6561,4722,5690,5966,4915,5701,6159,4840,5252,6754,5297,5728,5942,4834,6613,4833,5078,5786,6240,7941,5697,4638,5337,5042,4980,4862,6011,4769,4909,4916,5016,4675,4965,4785,4920,4641,5270,6811,7769,7302,7499,5787,5342,4978,6061,4823,5090,5158,4907,5041,5183,4976,5003,4659,5429,4635,5303,4660,5181
14087,11490,10633,11379,10366,10574,9920,10433,9891,10571,10153,11366,10322,11822,10859,10805,10710,10847,10010,10781,9909,11224,10008,10399,9960,10403,9913,10518,9875,10506,11677,11815,10008,11375,10212,10744,10429,10563,12129,11340,11504,10590,10023,10468,9917,10451,9913,10443,10744,12220,11476,11387,10416,13427,10363,10550,10489,10814,10021,10990,9925,10438,9893,10398,9873,10435,9892,10714,10378,11435,10957,11251,10396,10750,10021,10515,10126,10573,9926,10473,9871,10495,11145,10856,10450,10501,9858,11667,11671,12887,10750,10539,10050,10571,10169,10958,10805,10972,9918,10410
25412,22300,24414,23402,22622,22948,22624,22950,21256,22919,21550,24149,23602,23816,21844,32197,21508,22352,21292,23100,22709,23316,22490,23113,22661,22411,21361,22291,22050,23566,22405,24951,21976,23509,21356,25415,23702,23304,22846,23989,21936,24559,21898,22381,21314,22231,24489,23101,22974,23180,23064,22863,21432,22500,21499,24191,22979,23551,28988,26890,21961,22356,21271,23342,21385,23826,22361,24179,24055,24113,21245,22201,23068,22349,22152,23192,22300,26086,24170,23165,28652,22667,22063,23648,24467,23401,22101,23427,21974,23767,21673,22320,22957,24753,22665,23147,22496,23862,25754,23621
59487,51801,48923,48060,47602,50145,50441,48982,47264,50833,54547,53875,49123,48677,49545,49783,58116,51795,49936,50315,50147,54179,51747,48988,47998,48304,48162,49467,47773,59362,48206,50257,47285,48094,47348,48891,50606,54815,48001,51228,55405,51547,48699,50701,49210,49930,48428,52627,58557,60499,55832,55482,52596,61433,69519,69538,58626,50117,49188,49383,48491,51586,54020,82195,67115,52211,54387,53408,50798,51648,48774,51808,51110,50150,50376,49958,51439,50134,47877,50047,49088,50941,48154,49639,48733,48101,51185,50825,48061,48315,49297,49918,49614,48195,48038,52078,52571,51537,49108,49211
108893,105142,104494,118840,104657,110454,100449,113963,130275,123705,112778,117091,113420,105378,98829,103614,102642,103284,100999,102706,99864,107754,100154,105009,98285,104125,102134,105782,99958,103588,100606,113574,101075,103116,97894,106885,100381,104935,97589,104423,104107,122140,109892,110031,108650,113036,98886,104282,100754,103999,110161,102709,99413,108830,110939,105887,102589,109015,106025,112199,103204,110038,100417,104578,110572,109882,101292,108350,99274,109298,101746,104329,102012,106779,98104,103321,99804,103341,102233,103406,105180,109680,100204,112949,106354,106193,98190,105017,101397,103204,99551,105046,110114,117082,102067,105304,99249,107246,105629,103922
215906,224260,209010,219328,208972,221184,208001,217761,219555,216980,209456,215563,218138,214925,210886,223267,206436,219164,206761,219890,209496,215608,207828,216750,211325,216634,219429,215696,208364,216762,211011,220147,207891,219238,209366,218949,219356,225692,210913,216487,211149,219022,208615,222154,209593,228692,207361,219868,211413,217118,220353,217475,218566,215857,213782,220458,211345,219186,209449,224456,208760,225437,214422,220831,212233,220273,215341,219471,210591,216809,218983,216534,208988,221653,210689,219356,207287,221496,210899,215656,210489,218728,215208,217570,208969,218789,208141,220936,213517,228306,207804,229905,218862,226478,209677,217915,218749,215620,212066,219891
452554,463152,440055,462699,448728,467091,439120,464394,439884,459194,450117,462796,444019,464821,444587,468295,442761,459191,442219,458422,452167,461388,451538,462234,441525,459895,442983,465060,443571,464903,446725,463310,449926,467933,453448,472420,459070,479090,492469,466800,454772,464138,448159,468829,460070,455688,442480,460957,443885,471081,449007,479476,452086,477867,444653,465157,446847,460198,445525,469743,442385,462877,439370,458729,582177,455878,447741,459384,451510,457910,447550,461025,446371,463636,449912,462907,447343,472992,447944,470037,440100,464471,499923,466448,511068,461190,449648,469993,447312,461220,445870,462184,455946,458463,443013,459541,451359,463438,455793,470388
938043,977800,938858,960824,945444,958426,922601,959459,940051,970793,931249,958533,924217,958144,921091,963388,925241,966569,929020,965478,933167,959259,932072,966115,923659,961265,925152,968252,928212,956526,932686,959350,929203,961961,936415,962337,926057,958507,932161,961691,921563,956351,920307,951418,923259,959120,929750,958674,924394,961032,929083,961165,922520,956255,925228,950980,925061,957825,930115,963106,917744,967038,922475,956732,925240,964414,928416,961921,919097,961496,925485,960347,932369,958476,920607,950192,921974,955554,914441,951623,918433,950270,913042,950859,919379,963161,919776,959215,918219,983454,920550,964035,933819,956604,918655,962141,941847,973081,939810,959521
1953721,2015065,1948449,2008712,1956903,2015121,1953968,2010159,1947173,2019472,1943536,2017533,1954179,2015049,1941379,2126722,1934393,2003272,1955692,2040858,1956599,2020869,1948321,2011009,1941352,2005862,1929514,1999138,1950586,1998453,1930295,1993485,1937139,1995664,1933473,2015076,1942166,2007824,1930950,2000327,1928132,2027865,2126567,2125226,1984055,2043141,2019258,1993897,1947599,2010333,1951037,2036977,2053874,2070725,2008490,2017781,2010753,2041780,1959839,2096316,1963212,2057090,1983106,2036461,1977392,2052609,1976013,2043546,1970252,2057242,1953844,2019148,1940795,2011318,1944140,2013157,1994473,2060113,1966910,2026468,1979573,2024895,1985595,2031902,1952676,2056739,1972905,2033343,1968501,2068974,1957111,2068950,1984453,2025755,1957693,2119896,2006492,2042809,1966537,2031820
4086595,4248256,4103730,4337584,4165375,4254624,4293648,4246920,4236312,4313722,4161829,4263521,4192918,4258055,4168831,4199709,4092753,4236702,4071787,4177341,4033043,4159893,4030753,4173366,4022597,4185200,4053271,4217784,4074416,4197238,4127932,4214713,4044887,4183248,4059227,4215978,4065395,4182315,4065498,4209427,4101966,4188124,4026232,4182141,4145098,4577561,4069268,4199675,4004388,4119973,3980945,4133973,4039977,4192260,3998953,4154793,3983679,4120766,3975727,4101204,3979411,4113027,4005973,4124009,4001870,4137590,3998778,4161128,3982077,4175129,4014642,4142216,4030167,4199637,4027047,4107714,4007584,4113907,4022888,4146268,4072215,4136072,3997247,4162849,4016104,4131323,3994498,4142598,4020043,4197786,3983480,4126489,3974562,4138251,4012825,4117483,3980224,4146297,4039120,4176037
8392791,8714900,8408518,8744788,8412317,8648337,8360503,8611980,8322319,8588783,8342082,8606834,8380833,8624719,8441129,8724910,8321398,8604720,8374805,8696114,8420042,8626380,8398481,8691496,8364641,8660937,8406796,8731561,8419720,8597261,8442757,8669316,8353432,8584554,8322623,8639892,8384568,8682233,8402878,8653411,8384047,8683765,8397226,8661540,8365255,8640560,8374472,8669142,8510145,8720331,8409705,8712027,8416493,8628471,8439261,8660068,8335429,8579620,8393009,8595719,8347491,8653144,8376969,8631276,8384781,8699934,8374396,8608288,8339866,8617087,8401012,8665188,8352367,8667169,8392272,8716889,8434534,8634038,8394720,8672376,8385120,8664845,8413768,8670564,8383353,8591644,8329799,8593123,8347438,8612675,8321720,8691818,8430676,8715311,8453044,8692489,8395636,8642406,8398685,8636594
17336286,17809201,17323194,18094551,17379561,17783701,17434675,17993114,17425934,17903044,17441253,18055548,17768656,17977432,17348050,17846697,17621674,18244368,17978274,18472109,17546119,18259360,17654824,21020138,18527344,18475699,17782904,18866116,18375494,18400709,18163537,17858837,17780281,18532193,18707777,17995577,17320691,18007941,17501838,18101911,17669765,17946647,17463521,17856776,17473867,18131727,17457203,18075787,18770072,18788214,17749542,18101934,17550965,18096105,17627096,18177610,17658934,18202391,17725349,18183414,17660747,18096347,17573229,20694283,19440173,18865717,19328188,20103773,18027422,18925336,18440071,19776290,20012273,20072377,19601834,19118187,17632250,18661052,17512511,18315123,17577616,18196912,17505928,18023206,17736387,18590687,17489012,18177599,17710332,18209527,17724113,18163766,17600239,18182580,17693613,18086049,17961291,18515192,17621695,18328362
